Nome: LUKE SKYWALKER
GRR: GRR41561234
Disciplinas:
	cod: CI062
   : Curso de Ciencia da Computacao - Bacharelado
   : CI062
   : 2011
   : TECNICAS ALTERNATIVAS DE PROGRAMACAO
   : 4
   : 30
   : 120
   : Obrigatoria
   : A
   : Obrigatorias